<mxfile host="app.diagrams.net" modified="2020-12-28T23:27:17.499Z" agent="5.0 (Macintosh)" etag="UAhJu7l-P6ZgA7VPnFFU" version="14.1.2" type="gitlab">
  <diagram id="zr3ZmvGsznl_HxixD42G" name="Basic Concepts">
    <mxGraphModel dx="786" dy="462" grid="1" gridSize="10" guides="1" tooltips="1" connect="1" arrows="1" fold="1" page="1" pageScale="1" pageWidth="827" pageHeight="1169" math="0" shadow="0">
      <root>
        <mxCell id="0" />
        <mxCell id="1" parent="0" />
        <mxCell id="eeAbe2u5ZEA-NahY88Vh-1" value="&lt;div&gt;NgModule&lt;/div&gt;" style="ellipse;whiteSpace=wrap;html=1;fillColor=#dae8fc;strokeColor=#6c8ebf;" vertex="1" parent="1">
          <mxGeometry x="340" y="200" width="120" height="80" as="geometry" />
        </mxCell>
        <mxCell id="eeAbe2u5ZEA-NahY88Vh-2" value="&lt;div&gt;Angular App&lt;/div&gt;" style="ellipse;whiteSpace=wrap;html=1;fillColor=#d5e8d4;strokeColor=#82b366;" vertex="1" parent="1">
          <mxGeometry x="340" y="80" width="120" height="80" as="geometry" />
        </mxCell>
        <mxCell id="eeAbe2u5ZEA-NahY88Vh-3" value="&lt;div&gt;NgModule&lt;/div&gt;" style="ellipse;whiteSpace=wrap;html=1;fillColor=#dae8fc;strokeColor=#6c8ebf;" vertex="1" parent="1">
          <mxGeometry x="190" y="290" width="120" height="80" as="geometry" />
        </mxCell>
        <mxCell id="eeAbe2u5ZEA-NahY88Vh-4" value="&lt;div&gt;NgModule&lt;/div&gt;" style="ellipse;whiteSpace=wrap;html=1;fillColor=#dae8fc;strokeColor=#6c8ebf;" vertex="1" parent="1">
          <mxGeometry x="354" y="330" width="120" height="80" as="geometry" />
        </mxCell>
        <mxCell id="eeAbe2u5ZEA-NahY88Vh-5" value="&lt;div&gt;NgModule&lt;/div&gt;" style="ellipse;whiteSpace=wrap;html=1;fillColor=#dae8fc;strokeColor=#6c8ebf;" vertex="1" parent="1">
          <mxGeometry x="530" y="270" width="120" height="80" as="geometry" />
        </mxCell>
        <mxCell id="eeAbe2u5ZEA-NahY88Vh-6" value="" style="endArrow=classic;html=1;exitX=-0.025;exitY=0.625;exitDx=0;exitDy=0;exitPerimeter=0;" edge="1" parent="1" source="eeAbe2u5ZEA-NahY88Vh-1" target="eeAbe2u5ZEA-NahY88Vh-3">
          <mxGeometry width="50" height="50" relative="1" as="geometry">
            <mxPoint x="380" y="270" as="sourcePoint" />
            <mxPoint x="430" y="220" as="targetPoint" />
          </mxGeometry>
        </mxCell>
        <mxCell id="eeAbe2u5ZEA-NahY88Vh-7" value="" style="endArrow=classic;html=1;entryX=0.5;entryY=0;entryDx=0;entryDy=0;exitX=0.567;exitY=1.038;exitDx=0;exitDy=0;exitPerimeter=0;" edge="1" parent="1" source="eeAbe2u5ZEA-NahY88Vh-1" target="eeAbe2u5ZEA-NahY88Vh-4">
          <mxGeometry width="50" height="50" relative="1" as="geometry">
            <mxPoint x="410" y="290" as="sourcePoint" />
            <mxPoint x="354.0002713219044" y="313.5351345165269" as="targetPoint" />
          </mxGeometry>
        </mxCell>
        <mxCell id="eeAbe2u5ZEA-NahY88Vh-8" value="" style="endArrow=classic;html=1;entryX=0.083;entryY=0.212;entryDx=0;entryDy=0;exitX=0.567;exitY=1.038;exitDx=0;exitDy=0;exitPerimeter=0;entryPerimeter=0;" edge="1" parent="1" target="eeAbe2u5ZEA-NahY88Vh-5">
          <mxGeometry width="50" height="50" relative="1" as="geometry">
            <mxPoint x="459.99999999999994" y="239.99999999999997" as="sourcePoint" />
            <mxPoint x="465.96" y="286.96" as="targetPoint" />
          </mxGeometry>
        </mxCell>
        <mxCell id="eeAbe2u5ZEA-NahY88Vh-9" value="" style="endArrow=classic;html=1;entryX=0.5;entryY=0;entryDx=0;entryDy=0;" edge="1" parent="1" target="eeAbe2u5ZEA-NahY88Vh-1">
          <mxGeometry width="50" height="50" relative="1" as="geometry">
            <mxPoint x="400" y="160" as="sourcePoint" />
            <mxPoint x="450" y="110" as="targetPoint" />
          </mxGeometry>
        </mxCell>
        <mxCell id="eeAbe2u5ZEA-NahY88Vh-10" value="&lt;div&gt;root module&lt;/div&gt;&lt;div&gt;&lt;br&gt;&lt;/div&gt;" style="text;html=1;strokeColor=none;fillColor=none;align=center;verticalAlign=middle;whiteSpace=wrap;rounded=0;" vertex="1" parent="1">
          <mxGeometry x="450" y="200" width="40" height="20" as="geometry" />
        </mxCell>
        <mxCell id="eeAbe2u5ZEA-NahY88Vh-11" value="&lt;div&gt;feature&lt;/div&gt;&lt;div&gt; module&lt;/div&gt;&lt;div&gt;&lt;br&gt;&lt;/div&gt;" style="text;html=1;strokeColor=none;fillColor=none;align=center;verticalAlign=middle;whiteSpace=wrap;rounded=0;" vertex="1" parent="1">
          <mxGeometry x="570" y="250" width="40" height="20" as="geometry" />
        </mxCell>
        <mxCell id="eeAbe2u5ZEA-NahY88Vh-14" value="&lt;div style=&quot;font-size: 18px&quot;&gt;&lt;b&gt;&lt;font style=&quot;font-size: 18px&quot;&gt;App Structure&lt;/font&gt;&lt;/b&gt;&lt;/div&gt;&lt;div style=&quot;font-size: 18px&quot;&gt;&lt;b&gt;&lt;font style=&quot;font-size: 18px&quot;&gt;&lt;br&gt;&lt;/font&gt;&lt;/b&gt;&lt;/div&gt;" style="text;html=1;strokeColor=none;fillColor=none;align=center;verticalAlign=middle;whiteSpace=wrap;rounded=0;" vertex="1" parent="1">
          <mxGeometry x="80" y="110" width="170" height="20" as="geometry" />
        </mxCell>
        <mxCell id="eeAbe2u5ZEA-NahY88Vh-15" value="AppModule - boostraps app" style="text;html=1;strokeColor=none;fillColor=none;align=center;verticalAlign=middle;whiteSpace=wrap;rounded=0;" vertex="1" parent="1">
          <mxGeometry x="290" y="210" width="40" height="20" as="geometry" />
        </mxCell>
        <mxCell id="eeAbe2u5ZEA-NahY88Vh-16" value="&lt;div&gt;NgModule&lt;/div&gt;" style="ellipse;whiteSpace=wrap;html=1;fillColor=#dae8fc;strokeColor=#6c8ebf;" vertex="1" parent="1">
          <mxGeometry x="150" y="490" width="120" height="80" as="geometry" />
        </mxCell>
        <mxCell id="eeAbe2u5ZEA-NahY88Vh-17" value="Component 1" style="ellipse;whiteSpace=wrap;html=1;fillColor=#fff2cc;strokeColor=#d6b656;" vertex="1" parent="1">
          <mxGeometry x="20" y="570" width="120" height="80" as="geometry" />
        </mxCell>
        <mxCell id="eeAbe2u5ZEA-NahY88Vh-18" value="Component 2" style="ellipse;whiteSpace=wrap;html=1;fillColor=#fff2cc;strokeColor=#d6b656;" vertex="1" parent="1">
          <mxGeometry x="165" y="620" width="120" height="80" as="geometry" />
        </mxCell>
        <mxCell id="eeAbe2u5ZEA-NahY88Vh-19" value="&lt;div&gt;Component 3&lt;/div&gt;" style="ellipse;whiteSpace=wrap;html=1;fillColor=#fff2cc;strokeColor=#d6b656;" vertex="1" parent="1">
          <mxGeometry x="285" y="570" width="120" height="80" as="geometry" />
        </mxCell>
        <mxCell id="eeAbe2u5ZEA-NahY88Vh-20" value="" style="endArrow=classic;html=1;exitX=0;exitY=0.625;exitDx=0;exitDy=0;entryX=1;entryY=0;entryDx=0;entryDy=0;exitPerimeter=0;" edge="1" parent="1" source="eeAbe2u5ZEA-NahY88Vh-16" target="eeAbe2u5ZEA-NahY88Vh-17">
          <mxGeometry width="50" height="50" relative="1" as="geometry">
            <mxPoint x="390" y="640" as="sourcePoint" />
            <mxPoint x="440" y="590" as="targetPoint" />
          </mxGeometry>
        </mxCell>
        <mxCell id="eeAbe2u5ZEA-NahY88Vh-21" value="" style="endArrow=classic;html=1;exitX=0.5;exitY=1;exitDx=0;exitDy=0;entryX=0.433;entryY=0;entryDx=0;entryDy=0;entryPerimeter=0;" edge="1" parent="1" source="eeAbe2u5ZEA-NahY88Vh-16" target="eeAbe2u5ZEA-NahY88Vh-18">
          <mxGeometry width="50" height="50" relative="1" as="geometry">
            <mxPoint x="177.57359312880715" y="568.2842712474619" as="sourcePoint" />
            <mxPoint x="132.42640687119285" y="591.7157287525379" as="targetPoint" />
          </mxGeometry>
        </mxCell>
        <mxCell id="eeAbe2u5ZEA-NahY88Vh-22" value="" style="endArrow=classic;html=1;exitX=0.5;exitY=1;exitDx=0;exitDy=0;" edge="1" parent="1" target="eeAbe2u5ZEA-NahY88Vh-19">
          <mxGeometry width="50" height="50" relative="1" as="geometry">
            <mxPoint x="270" y="535" as="sourcePoint" />
            <mxPoint x="276.96000000000004" y="585" as="targetPoint" />
          </mxGeometry>
        </mxCell>
        <mxCell id="eeAbe2u5ZEA-NahY88Vh-29" style="edgeStyle=orthogonalEdgeStyle;rounded=0;orthogonalLoop=1;jettySize=auto;html=1;entryX=0.5;entryY=1;entryDx=0;entryDy=0;exitX=0.5;exitY=0;exitDx=0;exitDy=0;" edge="1" parent="1" source="eeAbe2u5ZEA-NahY88Vh-24" target="eeAbe2u5ZEA-NahY88Vh-26">
          <mxGeometry relative="1" as="geometry">
            <mxPoint x="630" y="450" as="targetPoint" />
            <mxPoint x="630" y="460" as="sourcePoint" />
            <Array as="points" />
          </mxGeometry>
        </mxCell>
        <mxCell id="eeAbe2u5ZEA-NahY88Vh-30" style="edgeStyle=orthogonalEdgeStyle;rounded=0;orthogonalLoop=1;jettySize=auto;html=1;entryX=0.75;entryY=1;entryDx=0;entryDy=0;" edge="1" parent="1" source="eeAbe2u5ZEA-NahY88Vh-24" target="eeAbe2u5ZEA-NahY88Vh-25">
          <mxGeometry relative="1" as="geometry">
            <mxPoint x="540" y="560" as="targetPoint" />
          </mxGeometry>
        </mxCell>
        <mxCell id="eeAbe2u5ZEA-NahY88Vh-31" style="edgeStyle=orthogonalEdgeStyle;rounded=0;orthogonalLoop=1;jettySize=auto;html=1;entryX=0.5;entryY=1;entryDx=0;entryDy=0;" edge="1" parent="1" source="eeAbe2u5ZEA-NahY88Vh-24" target="eeAbe2u5ZEA-NahY88Vh-27">
          <mxGeometry relative="1" as="geometry">
            <Array as="points">
              <mxPoint x="730" y="510" />
            </Array>
          </mxGeometry>
        </mxCell>
        <mxCell id="eeAbe2u5ZEA-NahY88Vh-24" value="&lt;div&gt;Component&lt;/div&gt;" style="ellipse;whiteSpace=wrap;html=1;fillColor=#fff2cc;strokeColor=#d6b656;" vertex="1" parent="1">
          <mxGeometry x="570" y="470" width="120" height="80" as="geometry" />
        </mxCell>
        <mxCell id="eeAbe2u5ZEA-NahY88Vh-25" value="data/logic" style="text;html=1;strokeColor=none;fillColor=none;align=center;verticalAlign=middle;whiteSpace=wrap;rounded=0;" vertex="1" parent="1">
          <mxGeometry x="500" y="450" width="40" height="20" as="geometry" />
        </mxCell>
        <mxCell id="eeAbe2u5ZEA-NahY88Vh-26" value="template/view" style="text;html=1;strokeColor=none;fillColor=none;align=center;verticalAlign=middle;whiteSpace=wrap;rounded=0;" vertex="1" parent="1">
          <mxGeometry x="610" y="420" width="40" height="20" as="geometry" />
        </mxCell>
        <mxCell id="eeAbe2u5ZEA-NahY88Vh-27" value="style" style="text;html=1;strokeColor=none;fillColor=none;align=center;verticalAlign=middle;whiteSpace=wrap;rounded=0;" vertex="1" parent="1">
          <mxGeometry x="710" y="450" width="40" height="20" as="geometry" />
        </mxCell>
        <mxCell id="eeAbe2u5ZEA-NahY88Vh-33" value="&lt;div&gt;Component&lt;/div&gt;" style="ellipse;whiteSpace=wrap;html=1;fillColor=#fff2cc;strokeColor=#d6b656;" vertex="1" parent="1">
          <mxGeometry x="474" y="575" width="110" height="75" as="geometry" />
        </mxCell>
        <mxCell id="eeAbe2u5ZEA-NahY88Vh-34" value="&lt;div&gt;Component&lt;/div&gt;" style="ellipse;whiteSpace=wrap;html=1;fillColor=#fff2cc;strokeColor=#d6b656;" vertex="1" parent="1">
          <mxGeometry x="600" y="610" width="110" height="75" as="geometry" />
        </mxCell>
        <mxCell id="eeAbe2u5ZEA-NahY88Vh-35" value="&lt;div&gt;Component&lt;/div&gt;" style="ellipse;whiteSpace=wrap;html=1;fillColor=#fff2cc;strokeColor=#d6b656;" vertex="1" parent="1">
          <mxGeometry x="710" y="545" width="110" height="75" as="geometry" />
        </mxCell>
        <mxCell id="eeAbe2u5ZEA-NahY88Vh-36" value="" style="endArrow=classic;html=1;exitX=0.5;exitY=1;exitDx=0;exitDy=0;" edge="1" parent="1">
          <mxGeometry width="50" height="50" relative="1" as="geometry">
            <mxPoint x="584" y="533.28" as="sourcePoint" />
            <mxPoint x="530" y="575" as="targetPoint" />
          </mxGeometry>
        </mxCell>
        <mxCell id="eeAbe2u5ZEA-NahY88Vh-37" value="" style="endArrow=classic;html=1;exitX=0.5;exitY=1;exitDx=0;exitDy=0;entryX=0.4;entryY=-0.013;entryDx=0;entryDy=0;entryPerimeter=0;" edge="1" parent="1" target="eeAbe2u5ZEA-NahY88Vh-34">
          <mxGeometry width="50" height="50" relative="1" as="geometry">
            <mxPoint x="638" y="550" as="sourcePoint" />
            <mxPoint x="584" y="591.72" as="targetPoint" />
          </mxGeometry>
        </mxCell>
        <mxCell id="eeAbe2u5ZEA-NahY88Vh-38" value="" style="endArrow=classic;html=1;exitX=0.5;exitY=1;exitDx=0;exitDy=0;entryX=0;entryY=0;entryDx=0;entryDy=0;" edge="1" parent="1" target="eeAbe2u5ZEA-NahY88Vh-35">
          <mxGeometry width="50" height="50" relative="1" as="geometry">
            <mxPoint x="690" y="520" as="sourcePoint" />
            <mxPoint x="636" y="561.72" as="targetPoint" />
          </mxGeometry>
        </mxCell>
      </root>
    </mxGraphModel>
  </diagram>
</mxfile>
